{
  "name": "baldurmen-plymouth",
  "version": "2.0.1",
  "author": "Louis-Philippe Véronneau",
  "summary": "This Puppet module installs and manages plymouth splash screen on client computers.",
  "license": "GPL-3.0",
  "source": "https://gitlab.com/baldurmen/puppet-plymouth",
  "project_page": "https://gitlab.com/baldurmen/puppet-plymouth",
  "issues_url": "https://gitlab.com/baldurmen/puppet-plymouth/issues",
  "operatingsystem_support": [
    {
      "operatingsystem": "Debian",
      "operatingsystemrelease": [
        "8",
        "9"
      ]
    }
  ],
  "requirements": [
    {
      "name": "puppet",
      "version_requirement": ">= 4.7.0 < 6.0.0"
    }
  ],
  "dependencies": [
    {
      "name": "puppetlabs/stdlib",
      "version_requirement": ">= 4.24.0 < 6.0.0"
    }
  ],
  "description": "This module makes it easy to manage plymouth on client computers running Linux."
}
